%YAML 1.1
%TAG !u! tag:unity3d.com,2011:
--- !u!21 &2100000
Material:
  serializedVersion: 6
  m_ObjectHideFlags: 0
  m_CorrespondingSourceObject: {fileID: 0}
  m_PrefabInstance: {fileID: 0}
  m_PrefabAsset: {fileID: 0}
  m_Name: DoubleColorNegras
  m_Shader: {fileID: -6465566751694194690, guid: be521ffdee951904d92b14c73dfdb820, type: 3}
  m_ShaderKeywords: 
  m_LightmapFlags: 4
  m_EnableInstancingVariants: 0
  m_DoubleSidedGI: 0
  m_CustomRenderQueue: -1
  stringTagMap: {}
  disabledShaderPasses: []
  m_SavedProperties:
    serializedVersion: 3
    m_TexEnvs:
    - unity_Lightmaps:
        m_Texture: {fileID: 0}
        m_Scale: {x: 1, y: 1}
        m_Offset: {x: 0, y: 0}
    - unity_LightmapsInd:
        m_Texture: {fileID: 0}
        m_Scale: {x: 1, y: 1}
        m_Offset: {x: 0, y: 0}
    - unity_ShadowMasks:
        m_Texture: {fileID: 0}
        m_Scale: {x: 1, y: 1}
        m_Offset: {x: 0, y: 0}
    m_Floats:
    - Vector1_5f1789fa649544f7a435e541ad17eabe: 2.46
    - Vector1_a3aa23ab81924cf68a61509fa9e8fe3f: 1
    - Vector1_fc792a7a4ebd4303bf926f95fd41e829: 0
    m_Colors:
    - Color_baf0a0f1cb9f4f4e920e46b0e7af5f7f: {r: 0, g: 0.53431845, b: 1, a: 1}
    - Color_f80327f2df65470bb37599e932cf7b1d: {r: 0, g: 0, b: 0, a: 1}
  m_BuildTextureStacks: []
